<?xml version="1.0" encoding="utf-8"?>
<!-- Generator: Adobe Illustrator 21.0.2, SVG Export Plug-In . SVG Version: 6.00 Build 0)  -->
<svg version="1.1" id="Layer_1" xmlns="http://www.w3.org/2000/svg" xmlns:xlink="http://www.w3.org/1999/xlink" x="0px" y="0px"
	 viewBox="0 0 180 180" style="enable-background:new 0 0 180 180;" xml:space="preserve">
<style type="text/css">
	.st0{fill:#FFFFFF;}
</style>
<g>
	<path class="st0" d="M153.3,95.4c0,3,0,5.5,0,8.4c-2.7,0.3-5.2,0.5-8.3,0.8c0,13.4,0,26.7,0,40.4c-18.9,0-37.1,0-56.1,0
		c0-13.1,0-26.3,0-40.1c-15.4,0-30.2,0-45.6,0c0,13.2,0,26.4,0,40.1c-3.2,0-5.6,0-8.6,0c0-13.4,0-26.7,0-40.2
		c-2.9-0.3-5.2-0.6-8-0.9c0-2.6,0-5.2,0-8.5C68.6,95.4,110.7,95.4,153.3,95.4z M136.1,126.7c-13.1,0-26.1,0-39.2,0c0,3,0,5.9,0,8.7
		c13.3,0,26.1,0,39.2,0C136.1,132.3,136.1,129.8,136.1,126.7z M135.9,118.3c0-3,0-5.8,0-8.9c-13.2,0-26.1,0-39.2,0
		c0,3.2,0,5.9,0,8.9C109.6,118.3,122.2,118.3,135.9,118.3z"/>
	<path class="st0" d="M89.5,75.5c-7.8,0-15.5-0.1-23.3,0c-5.8,0.1-8.9-2.4-8.8-8.4c0.1-7.7,0.1-15.5,0-23.2C57.2,38,59.8,35,65.7,35
		c16,0,32,0,47.9,0c6,0,8.7,2.9,8.6,8.8c0,7.7,0,15.5,0,23.2c0,5.9-3,8.6-8.9,8.5C105.4,75.4,97.4,75.5,89.5,75.5z M115.5,40.7
		c-17.2,0-34.1,0-51.4,0c0,8.9,0,17.4,0,26.3c17.2,0,34.1,0,51.4,0C115.5,58.1,115.5,49.6,115.5,40.7z"/>
	<path class="st0" d="M45.9,106.8c4.9,0,9.3,0,14.3,0c0,12.7,0,25.2,0,38c-4.7,0-9.2,0-14.3,0C45.9,132.4,45.9,120,45.9,106.8z"/>
	<path class="st0" d="M85.8,77.5c2.1,0,3.9,0,6,0c0.3,3,0.6,5.7,0.9,9.5c4,0,8-0.1,12,0.1c1.2,0.1,2.3,1.2,3.4,1.9
		c-1.2,0.9-2.3,2.4-3.5,2.5c-10.5,0.2-21,0.2-31.5,0c-1.2,0-2.3-1.6-3.5-2.5c1.1-0.7,2.2-1.8,3.4-1.9c3.8-0.2,7.6-0.1,11.8-0.1
		C85.2,83.5,85.5,80.7,85.8,77.5z"/>
</g>
</svg>
