<?xml version="1.0" encoding="utf-8"?>
<!-- Generator: Adobe Illustrator 21.0.2, SVG Export Plug-In . SVG Version: 6.00 Build 0)  -->
<svg version="1.1" id="Layer_1" xmlns="http://www.w3.org/2000/svg" xmlns:xlink="http://www.w3.org/1999/xlink" x="0px" y="0px"
	 viewBox="0 0 180 180" style="enable-background:new 0 0 180 180;" xml:space="preserve">
<style type="text/css">
	.st0{fill:#FFFFFF;}
</style>
<path class="st0" d="M140.9,121.4V27c0-0.7-0.4-1.3-1-1.5c-0.6-0.2-1.3-0.1-1.8,0.4c-0.2,0.2-17.4,19-64.2,22.9
	c-0.8,0.1-1.5,0.8-1.5,1.6v77.1c-4.6-3.4-13.2-3-21.2,1.6c-9.5,5.5-14.5,14.8-11.1,20.7c3.4,5.9,13.9,6.3,23.5,0.8
	c8.1-4.7,12.9-12,12.1-17.8V80.8c37.1-3.4,55.6-14.8,62.1-19.8v55.3c-4.6-3.4-13.2-2.9-21.2,1.7c-9.5,5.5-14.5,14.8-11.1,20.7
	c3.4,5.9,13.9,6.3,23.5,0.8C137.1,134.7,141.9,127.2,140.9,121.4z"/>
</svg>
