<?xml version="1.0" encoding="UTF-8" standalone="no"?>
<svg width="20px" height="17px" viewBox="0 0 20 17" version="1.1" xmlns="http://www.w3.org/2000/svg" xmlns:xlink="http://www.w3.org/1999/xlink">
    <!-- Generator: Sketch 3.6.1 (26313) - http://www.bohemiancoding.com/sketch -->
    <title>icn_category_informatika_default</title>
    <desc>Created with Sketch.</desc>
    <defs></defs>
    <g id="Styleguide" stroke="none" stroke-width="1" fill="none" fill-rule="evenodd">
        <g id="04.02.---UI-elements" transform="translate(-330.000000, -580.000000)" fill="#313943">
            <g id="icn_category_informatika_default" transform="translate(330.000000, 580.000000)">
                <path d="M1.2248,12.5532857 L18.0248,12.5532857 C18.2456,12.5532857 18.4248,12.3719524 18.4248,12.1485238 L18.4248,2.02947619 C18.4248,1.13657143 17.7072,0.410428571 16.8248,0.410428571 L2.4248,0.410428571 C1.5424,0.410428571 0.8248,1.13657143 0.8248,2.02947619 L0.8248,12.1485238 C0.8248,12.3719524 1.004,12.5532857 1.2248,12.5532857 L1.2248,12.5532857 Z M2.4248,2.02947619 L16.8248,2.02947619 L16.8248,10.9342381 L2.4248,10.9342381 L2.4248,2.02947619 Z" id="Fill-8"></path>
                <path d="M18.8248,12.9580476 L11.6248,12.9580476 C11.404,12.9580476 11.2248,13.139381 11.2248,13.3628095 L11.2248,13.7675714 L8.0248,13.7675714 L8.0248,13.3628095 C8.0248,13.139381 7.8456,12.9580476 7.6248,12.9580476 L0.4248,12.9580476 C0.204,12.9580476 0.0248,13.139381 0.0248,13.3628095 L0.0248,14.9818571 C0.0248,15.6513333 0.5632,16.1961429 1.2248,16.1961429 L18.0248,16.1961429 C18.6864,16.1961429 19.2248,15.6513333 19.2248,14.9818571 L19.2248,13.3628095 C19.2248,13.139381 19.0456,12.9580476 18.8248,12.9580476" id="Fill-9"></path>
            </g>
        </g>
    </g>
</svg>