<?xml version="1.0" encoding="utf-8"?>
<!-- Generator: Adobe Illustrator 21.0.2, SVG Export Plug-In . SVG Version: 6.00 Build 0)  -->
<svg version="1.1" id="Layer_1" xmlns="http://www.w3.org/2000/svg" xmlns:xlink="http://www.w3.org/1999/xlink" x="0px" y="0px"
	 viewBox="0 0 180 180" style="enable-background:new 0 0 180 180;" xml:space="preserve">
<style type="text/css">
	.st0{fill:#FFFFFF;}
</style>
<g>
	<path class="st0" d="M90,90.9c-19.9,0-53.4,42.7-39.1,53.8c14.3,11.1,30.8-3.4,39.1-3.4s24.8,14.5,39.1,3.4
		C143.4,133.6,109.9,90.9,90,90.9z"/>
	
		<ellipse transform="matrix(0.6006 -0.7996 0.7996 0.6006 -15.3168 143.7813)" class="st0" cx="136.2" cy="87.2" rx="21" ry="16.8"/>
	
		<ellipse transform="matrix(0.1251 -0.9921 0.9921 0.1251 41.5076 156.3394)" class="st0" cx="109.4" cy="54.6" rx="23.6" ry="16.7"/>
	<ellipse transform="matrix(0.7996 -0.6006 0.6006 0.7996 -43.6125 43.7561)" class="st0" cx="43.8" cy="87.2" rx="16.8" ry="21"/>
	<ellipse transform="matrix(0.9921 -0.1251 0.1251 0.9921 -6.2821 9.2643)" class="st0" cx="70.6" cy="54.6" rx="16.7" ry="23.6"/>
</g>
</svg>
