<?xml version="1.0" encoding="UTF-8" standalone="no"?>
<svg width="21px" height="20px" viewBox="0 0 21 20" version="1.1" xmlns="http://www.w3.org/2000/svg" xmlns:xlink="http://www.w3.org/1999/xlink">
    <!-- Generator: Sketch 3.6.1 (26313) - http://www.bohemiancoding.com/sketch -->
    <title>icn_category_poljoprivreda_default</title>
    <desc>Created with Sketch.</desc>
    <defs></defs>
    <g id="Styleguide" stroke="none" stroke-width="1" fill="none" fill-rule="evenodd">
        <g id="04.02.---UI-elements" transform="translate(-384.000000, -687.000000)" fill="#313943">
            <g id="icn_category_poljoprivreda_default" transform="translate(384.000000, 687.000000)">
                <path d="M3.38604,11.6733333 L0.44604,11.6733333 C0.2142,11.6733333 0.02604,11.8591667 0.02604,12.0891667 L0.02604,18.7558333 C0.02604,18.9866667 0.2142,19.1733333 0.44604,19.1733333 L3.38604,19.1733333 C3.61788,19.1733333 3.80604,18.9866667 3.80604,18.7558333 L3.80604,12.0891667 C3.80604,11.8591667 3.61788,11.6733333 3.38604,11.6733333" id="Fill-1"></path>
                <path d="M20.0634,15.1283333 C19.0764,14.15 18.22632,13.8791667 17.11416,14.1941667 L14.5866,15.0258333 C14.60928,15.1566667 14.62104,15.29 14.62104,15.4233333 C14.62104,15.9566667 14.44716,16.4583333 14.13048,16.8358333 C13.76088,17.2741667 13.24092,17.5058333 12.62604,17.5058333 L8.00604,17.5058333 C7.7742,17.5058333 7.58604,17.32 7.58604,17.0891667 C7.58604,16.8591667 7.7742,16.6733333 8.00604,16.6733333 L12.62604,16.6733333 C12.98892,16.6733333 13.27788,16.5483333 13.48452,16.3016667 C13.67352,16.0775 13.78104,15.7575 13.78104,15.4233333 C13.78104,14.9583333 13.53828,14.1733333 12.62604,14.1733333 L10.10604,14.1733333 C9.99432,14.1733333 9.88764,14.1291667 9.80952,14.0508333 C9.3408,13.5866667 8.064,12.5058333 6.32604,12.5058333 L4.64604,12.5058333 C4.4142,12.5058333 4.22604,12.6925 4.22604,12.9233333 L4.22604,17.5058333 C4.22604,17.6858333 4.34196,17.845 4.51332,17.9016667 C5.84472,18.3416667 6.89136,18.7191667 7.73304,19.0216667 C9.4164,19.6283333 10.36224,19.9575 11.21148,19.9575 C12.22956,19.9575 13.1082,19.4841667 14.952,18.4516667 C16.10112,17.8075 17.67528,16.9258333 19.9542,15.7958333 C20.07432,15.7358333 20.15916,15.6216667 20.181,15.49 C20.202,15.3575 20.15832,15.2225 20.0634,15.1283333" id="Fill-2"></path>
                <path d="M7.29624,9.38083333 C7.96068,9.38083333 8.53608,9.0625 9.0174,8.4375 C10.1556,10.5158333 10.53948,12.1758333 10.54536,12.2033333 C10.62432,12.5616667 10.93596,12.8308333 11.30976,12.8575 L11.36604,12.8591667 C11.7138,12.8591667 12.03048,12.6425 12.15228,12.3191667 C12.17916,12.2491667 12.55296,11.295 13.26024,10.2808333 C13.73148,10.81 14.259,10.9483333 14.67648,10.9483333 L14.67732,10.9483333 C15.34344,10.9483333 16.0734,10.585 16.6782,9.95333333 C17.6862,8.89833333 18.2658,6.05 17.4804,4.3525 C17.42664,4.2375 17.32416,4.15333333 17.20068,4.12166667 C17.07972,4.09166667 16.94784,4.1175 16.84536,4.19333333 C16.10952,4.745 15.42912,4.91916667 14.70924,5.10333333 C14.08848,5.2625 13.44672,5.42666667 12.81336,5.84583333 C12.0834,6.32916667 11.66424,6.99333333 11.66256,7.66833333 C11.66172,8.00416667 11.76588,8.45583333 12.18504,8.9225 C11.94312,9.235 11.72808,9.54666667 11.54328,9.84333333 C11.23332,9.055 10.81668,8.15333333 10.26564,7.20666667 C10.88892,6.7825 11.27364,6.28 11.40804,5.70333333 C11.60208,4.8725 11.27784,3.95666667 10.44372,2.98333333 C9.6642,2.07166667 8.62008,1.76083333 7.51548,1.43 C6.54864,1.14166667 5.54904,0.843333333 4.66872,0.105 C4.57212,0.0233333333 4.44192,-0.0116666667 4.3176,0.0141666667 C4.19244,0.0383333333 4.08576,0.116666667 4.02612,0.228333333 C2.8686,2.4 3.41292,6.355 4.68048,7.83583333 C5.28276,8.54083333 6.22608,9.38083333 7.29624,9.38083333 L7.29624,9.38083333 Z M5.7078,3.25583333 C5.72628,3.205 5.754,3.15583333 5.79264,3.11416667 C5.79768,3.10833333 5.80356,3.10666667 5.8086,3.10166667 C5.84472,3.06583333 5.88504,3.035 5.93124,3.01416667 C5.94384,3.00833333 5.95812,3.00833333 5.97156,3.00416667 C6.01104,2.99083333 6.05136,2.97916667 6.09336,2.97833333 C6.12528,2.9775 6.1572,2.985 6.18912,2.99166667 C6.20844,2.99583333 6.22944,2.99583333 6.24792,3.0025 C6.29328,3.01833333 6.33612,3.04416667 6.37476,3.07666667 C6.37812,3.07916667 6.38232,3.08 6.38484,3.0825 C6.41004,3.105 6.43272,3.1275 6.45708,3.15 C6.615,3.2925 6.76956,3.43583333 6.91824,3.58083333 C6.96528,3.62666667 7.0098,3.67333333 7.05684,3.72 C7.18452,3.8475 7.3122,3.97583333 7.434,4.105 C7.46928,4.14166667 7.50288,4.17916667 7.53732,4.21666667 C7.67088,4.36083333 7.80192,4.50583333 7.92792,4.65166667 C7.94556,4.67166667 7.9632,4.6925 7.98084,4.7125 C8.7654,5.6275 9.39876,6.55583333 9.90612,7.42916667 C9.9078,7.42833333 9.90864,7.4275 9.91032,7.42666667 C10.38072,8.2375 10.74948,9.0125 11.03676,9.71083333 C11.04684,9.735 11.05608,9.75833333 11.06616,9.7825 C11.10816,9.88583333 11.14932,9.9875 11.18712,10.0866667 C11.20812,10.14 11.22744,10.1916667 11.24676,10.2433333 C11.26524,10.2933333 11.2854,10.3441667 11.30304,10.3925 L11.45844,10.8158333 L11.68356,10.425 C11.6886,10.4158333 11.69532,10.405 11.70036,10.3958333 C11.71464,10.3716667 11.73144,10.3458333 11.74572,10.3208333 C11.82216,10.1908333 11.90364,10.0583333 11.99184,9.92083333 C12.01452,9.88583333 12.03972,9.85 12.06324,9.815 C12.14724,9.6875 12.23544,9.55916667 12.32952,9.42833333 C12.36144,9.38416667 12.39588,9.34 12.42948,9.295 C12.44964,9.2675 12.4698,9.23916667 12.49164,9.21166667 C12.49164,9.21166667 12.49332,9.2125 12.49332,9.21333333 C12.56556,9.11916667 12.6378,9.025 12.71508,8.93166667 C12.75624,8.88083333 12.79824,8.83083333 12.84192,8.78083333 C12.9402,8.6675 13.04268,8.555 13.14852,8.44416667 C13.19892,8.39166667 13.24932,8.33916667 13.3014,8.2875 C13.40892,8.18083333 13.52232,8.07833333 13.6374,7.97666667 C13.69368,7.9275 13.74828,7.87666667 13.80708,7.82833333 C13.93056,7.72583333 14.0616,7.63083333 14.19432,7.53666667 C14.24976,7.4975 14.30184,7.455 14.35896,7.4175 C14.55048,7.29166667 14.74956,7.17416667 14.95788,7.07083333 C15.1536,6.975 15.39048,7.05333333 15.50052,7.22916667 C15.5064,7.23916667 15.51648,7.24583333 15.52152,7.25666667 C15.54756,7.3075 15.561,7.36083333 15.5652,7.415 C15.56856,7.46833333 15.56184,7.5225 15.5442,7.575 C15.5442,7.575 15.54252,7.5775 15.54168,7.57916667 C15.52404,7.62916667 15.498,7.675 15.4644,7.71416667 C15.42996,7.75416667 15.38712,7.7875 15.33756,7.81333333 C15.33588,7.81333333 15.33504,7.815 15.3342,7.81583333 C13.27452,8.83666667 12.09684,11.37 11.82216,12.0183333 C11.8146,12.0375 11.80872,12.0525 11.802,12.0683333 C11.79444,12.0866667 11.78604,12.1066667 11.78016,12.12 C11.77008,12.145 11.76252,12.1641667 11.76,12.1716667 L11.76,12.1725 C11.71716,12.2833333 11.62812,12.3666667 11.5206,12.41 C11.51136,12.4133333 11.5038,12.4191667 11.49456,12.4225 C11.47356,12.4291667 11.45088,12.43 11.42988,12.4333333 C11.40972,12.4358333 11.3904,12.4425 11.37024,12.4425 L11.36688,12.4425 L11.33412,12.4408333 L11.33244,12.4408333 C11.1678,12.4283333 11.03004,12.3158333 10.97544,12.1633333 C10.96872,12.1466667 10.95948,12.1316667 10.95528,12.1141667 C10.9494,12.085 10.53192,10.2758333 9.28116,8.0525 C9.282,8.05083333 9.28284,8.05 9.28368,8.04916667 C8.49744,6.6525 7.38108,5.0925 5.82372,3.7025 C5.78088,3.66416667 5.74812,3.61916667 5.7246,3.57 C5.71452,3.54833333 5.71284,3.5225 5.70612,3.49916667 C5.69184,3.44583333 5.68848,3.3925 5.69604,3.33833333 C5.70024,3.31083333 5.69856,3.28166667 5.7078,3.25583333 L5.7078,3.25583333 Z" id="Fill-3"></path>
            </g>
        </g>
    </g>
</svg>