<?xml version="1.0" encoding="utf-8"?>
<!-- Generator: Adobe Illustrator 21.0.2, SVG Export Plug-In . SVG Version: 6.00 Build 0)  -->
<svg version="1.1" id="Layer_1" xmlns="http://www.w3.org/2000/svg" xmlns:xlink="http://www.w3.org/1999/xlink" x="0px" y="0px"
	 viewBox="0 0 180 180" style="enable-background:new 0 0 180 180;" xml:space="preserve">
<style type="text/css">
	.st0{fill:#FFFFFF;}
</style>
<g>
	<g>
		<path class="st0" d="M142.4,25.4H37.6c-6.8,0-12.3,5.5-12.3,12.3v71.1c0,6.8,5.5,12.3,12.3,12.3h41.8v-10.4h-45V35.8h111.3v74.9
			h-16.5v10.4h13.3c6.8,0,12.3-5.5,12.3-12.3V37.7C154.7,30.9,149.2,25.4,142.4,25.4z"/>
	</g>
	<g>
		<path class="st0" d="M84.4,93.1v61.5h39.3V93.1H84.4z M101.4,136.4h-6v-8.1h6V136.4z M101.4,125.2h-6v-8.1h6V125.2z M101.4,114.4
			h-6v-8.1h6V114.4z M112.6,136.4h-6v-8.1h6V136.4z M112.6,125.2h-6v-8.1h6V125.2z M112.6,114.4h-6v-8.1h6V114.4z"/>
	</g>
	<g>
		<path class="st0" d="M111.6,87.9c-6.6-5.5-12.9-0.2-13.1,0l-2.2-2.6c3-2.6,10.5-5.9,17.5,0L111.6,87.9z"/>
	</g>
	<g>
		<path class="st0" d="M116.3,75.3c-12-8.5-22.6-0.4-23-0.1l-2.1-2.7c0.1-0.1,12.9-10.1,27.1-0.1L116.3,75.3z"/>
	</g>
	<g>
		<path class="st0" d="M122.1,64.4c-18.3-12.3-33.9-0.6-34.6-0.1l-2.1-2.7c0.2-0.1,18.2-13.8,38.5-0.1L122.1,64.4z"/>
	</g>
</g>
</svg>
