<?xml version="1.0" encoding="utf-8"?>
<!-- Generator: Adobe Illustrator 21.0.2, SVG Export Plug-In . SVG Version: 6.00 Build 0)  -->
<svg version="1.1" id="Layer_1" xmlns="http://www.w3.org/2000/svg" xmlns:xlink="http://www.w3.org/1999/xlink" x="0px" y="0px"
	 viewBox="0 0 180 180" style="enable-background:new 0 0 180 180;" xml:space="preserve">
<style type="text/css">
	.st0{fill:#FFFFFF;}
</style>
<g>
	<path class="st0" d="M146,29.1v99.3h-42.2c-4.3,0-7.7,3.5-7.7,7.7v0h-2.2V40.5c0-6.3,5.1-11.5,11.5-11.5H146z"/>
	<path class="st0" d="M34,29.1v99.3h42.2c4.3,0,7.7,3.5,7.7,7.7v0h2.2V40.5c0-6.3-5.1-11.5-11.5-11.5H34z"/>
	<path class="st0" d="M151.5,41.4v92.2h-38c-6.3,0-13.4,4.7-14.4,11.3H80.9c-1-6.5-8.1-11.3-14.4-11.3h-38V41.4h-3.1v95.3h41.2
		c5.3,0,11.4,4.3,11.4,9.8v3.1c0,0.8,0.6,1.4,1.4,1.4H90h10.7c0.8,0,1.4-0.6,1.4-1.4v-3.1c0-5.5,6.1-9.8,11.4-9.8h41.2V41.4H151.5z"
		/>
</g>
</svg>
